%FSLAX23Y23*%
%MOIN*%
G04 EasyPC Gerber Version 17.0 Build 3379 *
%ADD103R,0.02125X0.07445*%
%ADD108R,0.02323X0.02717*%
%ADD102R,0.02323X0.07244*%
%ADD118R,0.02717X0.08819*%
%ADD104R,0.03305X0.09605*%
%ADD122R,0.04094X0.06850*%
%ADD105R,0.04882X0.05236*%
%ADD115R,0.04945X0.05745*%
%ADD110R,0.05276X0.05866*%
%ADD124R,0.05472X0.09606*%
%ADD123R,0.05472X0.10787*%
%ADD121R,0.06850X0.07835*%
%ADD106R,0.06850X0.10394*%
%ADD114R,0.06850X0.11181*%
%ADD119R,0.08819X0.10787*%
%ADD125R,0.05669X0.05669*%
%ADD25R,0.06945X0.06945*%
%ADD113R,0.36378X0.36378*%
%ADD116C,0.04945*%
%ADD23C,0.06945*%
%ADD20C,0.07244*%
%ADD117C,0.08819*%
%ADD21C,0.08945*%
%ADD24C,0.10787*%
%ADD107R,0.02717X0.02323*%
%ADD101R,0.07244X0.02323*%
%ADD111R,0.05669X0.03307*%
%ADD22C,0.25945*%
%ADD26R,0.05236X0.04882*%
%ADD112R,0.10945X0.05157*%
%ADD109R,0.05866X0.05276*%
%ADD126R,0.06850X0.05472*%
%ADD127R,0.08465X0.07244*%
%ADD120R,0.10787X0.07835*%
X0Y0D02*
D02*
D20*
X1788Y1295D03*
D03*
Y1395D03*
D03*
Y1495D03*
D03*
Y1595D03*
D03*
X2204Y1279D03*
D03*
Y1379D03*
D03*
X2634Y1500D03*
D03*
Y1600D03*
D03*
D02*
D21*
X626Y904D03*
D03*
X726D03*
D03*
X826D03*
D03*
X926D03*
D03*
D02*
D22*
X326Y404D03*
D03*
X1226D03*
D03*
D02*
D23*
X723Y1029D03*
D03*
X798D03*
D03*
X873D03*
D03*
D02*
D24*
X2482Y222D03*
D03*
X2619D03*
D03*
X2757D03*
D03*
X2895D03*
D03*
X3033D03*
D03*
X3171D03*
D03*
X3308D03*
D03*
X3446D03*
D03*
X3584D03*
D03*
X3722D03*
D03*
D02*
D25*
X1148Y1616D03*
D03*
Y1716D03*
D03*
Y1816D03*
D03*
Y1916D03*
D03*
X1248Y1616D03*
D03*
Y1716D03*
D03*
Y1816D03*
D03*
Y1916D03*
D03*
D02*
D26*
X819Y1564D03*
D03*
X889D03*
D03*
X1603Y1942D03*
D03*
X1609Y1756D03*
D03*
X1673Y1942D03*
D03*
X1679Y1756D03*
D03*
X1782Y2305D03*
D03*
X1852D03*
D03*
X1950Y2942D03*
D03*
X2020D03*
D03*
X2109Y2291D03*
D03*
X2131Y1585D03*
D03*
Y1666D03*
D03*
X2179Y2291D03*
D03*
X2201Y1180D03*
D03*
X2201Y1585D03*
D03*
Y1666D03*
D03*
X2271Y1180D03*
D03*
X2367Y1733D03*
D03*
X2384Y2220D03*
D03*
X2437Y1733D03*
D03*
X2454Y2220D03*
D03*
X2497Y1733D03*
D03*
X2567D03*
D03*
X2950Y2125D03*
D03*
X3020Y2193D03*
D03*
X3020Y2125D03*
D03*
X3083Y1836D03*
D03*
X3090Y2062D03*
D03*
X3090Y2193D03*
D03*
X3091Y2125D03*
D03*
X3151Y1474D03*
D03*
X3153Y1836D03*
D03*
X3160Y2062D03*
D03*
X3161Y2125D03*
D03*
X3221Y1837D03*
D03*
X3221Y1474D03*
D03*
X3291Y1837D03*
D03*
X3297Y2012D03*
D03*
X3367D03*
D03*
X3433Y1474D03*
D03*
X3503D03*
D03*
X3571Y2543D03*
D03*
X3641D03*
D03*
D02*
D101*
X1776Y1833D03*
D03*
Y1853D03*
D03*
Y1873D03*
D03*
Y1892D03*
D03*
Y1912D03*
D03*
Y1932D03*
D03*
Y1951D03*
D03*
Y1971D03*
D03*
Y1991D03*
D03*
Y2010D03*
D03*
Y2030D03*
D03*
Y2050D03*
D03*
Y2069D03*
D03*
Y2089D03*
D03*
Y2109D03*
D03*
Y2128D03*
D03*
X2225Y1833D03*
D03*
Y1853D03*
D03*
Y1873D03*
D03*
Y1892D03*
D03*
Y1912D03*
D03*
Y1932D03*
D03*
Y1951D03*
D03*
Y1971D03*
D03*
Y1991D03*
D03*
Y2010D03*
D03*
Y2030D03*
D03*
Y2050D03*
D03*
Y2069D03*
D03*
Y2089D03*
D03*
Y2109D03*
D03*
Y2128D03*
D03*
D02*
D102*
X1853Y1756D03*
D03*
Y2205D03*
D03*
X1872Y1756D03*
D03*
Y2205D03*
D03*
X1892Y1756D03*
D03*
Y2205D03*
D03*
X1912Y1756D03*
D03*
Y2205D03*
D03*
X1931Y1756D03*
D03*
Y2205D03*
D03*
X1951Y1756D03*
D03*
Y2205D03*
D03*
X1971Y1756D03*
D03*
Y2205D03*
D03*
X1990Y1756D03*
D03*
Y2205D03*
D03*
X2010Y1756D03*
D03*
Y2205D03*
D03*
X2030Y1756D03*
D03*
Y2205D03*
D03*
X2050Y1756D03*
D03*
Y2205D03*
D03*
X2069Y1756D03*
D03*
Y2205D03*
D03*
X2089Y1756D03*
D03*
Y2205D03*
D03*
X2109Y1756D03*
D03*
Y2205D03*
D03*
X2128Y1756D03*
D03*
Y2205D03*
D03*
X2148Y1756D03*
D03*
Y2205D03*
D03*
D02*
D103*
X692Y1247D03*
D03*
Y1466D03*
D03*
X718Y1247D03*
D03*
Y1466D03*
D03*
X744Y1247D03*
D03*
Y1466D03*
D03*
X769Y1247D03*
D03*
Y1466D03*
D03*
X795Y1247D03*
D03*
Y1466D03*
D03*
X820Y1247D03*
D03*
Y1466D03*
D03*
X846Y1247D03*
D03*
Y1466D03*
D03*
X872Y1247D03*
D03*
Y1466D03*
D03*
D02*
D104*
X1509Y422D03*
D03*
Y626D03*
D03*
X1559Y422D03*
D03*
Y626D03*
D03*
X1609Y422D03*
D03*
Y626D03*
D03*
X1659Y422D03*
D03*
Y626D03*
D03*
X2582Y575D03*
D03*
Y780D03*
D03*
X2632Y575D03*
D03*
Y780D03*
D03*
X2682Y575D03*
D03*
Y780D03*
D03*
X2732Y575D03*
D03*
Y780D03*
D03*
D02*
D105*
X624Y1384D03*
D03*
Y1454D03*
D03*
X1319Y2606D03*
D03*
Y2676D03*
D03*
X1448Y422D03*
D03*
Y492D03*
D03*
X1548Y751D03*
D03*
Y821D03*
D03*
X1613Y751D03*
D03*
Y821D03*
D03*
X1760Y2401D03*
D03*
Y2471D03*
D03*
X1788Y1129D03*
D03*
Y1199D03*
D03*
X1993Y1210D03*
D03*
Y1280D03*
D03*
X2300Y1263D03*
D03*
Y1333D03*
D03*
X2383Y2080D03*
D03*
Y2150D03*
D03*
X2452Y2080D03*
D03*
Y2150D03*
D03*
X2458Y2740D03*
D03*
Y2810D03*
D03*
X2511Y1501D03*
D03*
Y1571D03*
D03*
X2526Y640D03*
D03*
Y710D03*
D03*
X2694Y1735D03*
D03*
Y1805D03*
D03*
X2801Y578D03*
D03*
Y648D03*
D03*
X2884Y497D03*
D03*
Y567D03*
D03*
X2941Y497D03*
D03*
Y567D03*
D03*
X3017Y1914D03*
D03*
Y1984D03*
D03*
X3092Y695D03*
D03*
Y765D03*
D03*
X3169Y694D03*
D03*
Y764D03*
D03*
X3253Y700D03*
D03*
Y770D03*
D03*
X3328Y700D03*
D03*
Y770D03*
D03*
X3448Y696D03*
D03*
Y766D03*
D03*
X3523Y696D03*
D03*
Y766D03*
D03*
D02*
D106*
X2368Y1846D03*
D03*
X2545D03*
D03*
D02*
D107*
X1379Y2568D03*
D03*
Y2587D03*
D03*
Y2607D03*
D03*
X1475Y2568D03*
D03*
Y2587D03*
D03*
Y2607D03*
D03*
D02*
D108*
X1388Y2539D03*
D03*
Y2635D03*
D03*
X1407Y2539D03*
D03*
Y2635D03*
D03*
X1427Y2539D03*
D03*
Y2635D03*
D03*
X1447Y2539D03*
D03*
Y2635D03*
D03*
X1466Y2539D03*
D03*
Y2635D03*
D03*
D02*
D109*
X1243Y2604D03*
D03*
Y2679D03*
D03*
X1848Y2784D03*
D03*
Y2859D03*
D03*
X1920Y2308D03*
D03*
Y2382D03*
D03*
X2168Y2745D03*
D03*
Y2819D03*
D03*
X2542Y2742D03*
D03*
Y2817D03*
D03*
X3584Y2666D03*
D03*
Y2741D03*
D03*
D02*
D110*
X1033Y905D03*
D03*
X1108D03*
D03*
X1602Y1829D03*
D03*
X1677D03*
D03*
X3407Y1837D03*
D03*
X3481D03*
D03*
D02*
D111*
X1950Y2787D03*
D03*
Y2862D03*
D03*
X2053Y2787D03*
D03*
Y2824D03*
D03*
Y2862D03*
D03*
X3106Y1913D03*
D03*
Y1988D03*
D03*
X3208Y1913D03*
D03*
Y1951D03*
D03*
Y1988D03*
D03*
D02*
D112*
X3455Y2545D03*
D03*
Y2645D03*
D03*
Y2745D03*
D03*
D02*
D113*
X3052Y2646D03*
D03*
D02*
D114*
X3721Y476D03*
D03*
Y642D03*
D03*
D02*
D115*
X1329Y686D03*
D03*
X1369Y599D03*
D03*
X1409Y686D03*
D03*
X2256Y2832D03*
D03*
X2296Y2745D03*
D03*
X2336Y2832D03*
D03*
X2349Y1583D03*
D03*
X2389Y1496D03*
D03*
X2429Y1583D03*
D03*
X3085Y589D03*
D03*
X3125Y502D03*
D03*
X3147Y1398D03*
D03*
X3165Y589D03*
D03*
X3187Y1311D03*
D03*
X3227Y1398D03*
D03*
X3248Y588D03*
D03*
X3288Y501D03*
D03*
X3328Y588D03*
D03*
X3429Y1397D03*
D03*
X3443Y586D03*
D03*
X3469Y1310D03*
D03*
X3483Y499D03*
D03*
X3509Y1397D03*
D03*
X3523Y586D03*
D03*
D02*
D116*
X204Y3028D03*
X3855Y3094D03*
X3901Y166D03*
D02*
D117*
X204Y3028D03*
X3855Y3094D03*
X3901Y166D03*
D02*
D118*
X1389Y203D03*
D03*
X1414D03*
D03*
X1440D03*
D03*
X1465D03*
D03*
X1491D03*
D03*
D02*
D119*
X1326Y185D03*
D03*
X1554D03*
D03*
D02*
D120*
X1322Y87D03*
D03*
X1558D03*
D03*
D02*
D121*
X1407D03*
D03*
X1472D03*
D03*
D02*
D122*
X1857Y127D03*
D03*
X1900D03*
D03*
X1943D03*
D03*
X1987D03*
D03*
X2030D03*
D03*
X2073D03*
D03*
X2117D03*
D03*
X2160D03*
D03*
D02*
D123*
X2327Y149D03*
D03*
Y594D03*
D03*
D02*
D124*
X1764Y143D03*
D03*
D02*
D125*
X1776Y227D03*
D03*
Y581D03*
D03*
D02*
D126*
X1853Y626D03*
D03*
X2159Y626D03*
D03*
D02*
D127*
X3186Y1103D03*
D03*
Y1213D03*
D03*
X3470Y1099D03*
D03*
Y1209D03*
D03*
X0Y0D02*
M02*
