G04 EasyPC Gerber Version 19.0.3 Build 3928 *
G04 #@! TF.Part,Single*
G04 #@! TF.FileFunction,Copper,L1,Top *
%FSLAX25Y25*%
%MOIN*%
G04 #@! TA.AperFunction,SMDPad*
%ADD144R,0.00780X0.06100*%
%ADD147R,0.00978X0.01372*%
%ADD143R,0.00978X0.05899*%
%ADD151R,0.01372X0.07474*%
%ADD130R,0.01960X0.08260*%
%ADD155R,0.02750X0.05506*%
%ADD131R,0.03537X0.03891*%
%ADD135R,0.03600X0.04400*%
%ADD133R,0.03931X0.04521*%
%ADD146R,0.01372X0.00978*%
%ADD142R,0.05899X0.00978*%
%ADD148R,0.04324X0.01962*%
%ADD74R,0.03891X0.03537*%
%ADD160R,0.04400X0.03600*%
%ADD149R,0.09600X0.03813*%
%ADD132R,0.04521X0.03931*%
%ADD157R,0.04128X0.08261*%
%ADD156R,0.04128X0.09443*%
%ADD154R,0.05506X0.06490*%
%ADD145R,0.05506X0.09049*%
%ADD134R,0.05506X0.09836*%
%ADD137R,0.04324X0.04324*%
%ADD150R,0.35033X0.35033*%
G04 #@! TD.AperFunction*
%ADD10C,0.00500*%
G04 #@! TA.AperFunction,SMDPad*
%ADD136C,0.03600*%
%ADD158R,0.05506X0.04128*%
%ADD152R,0.07474X0.05506*%
%ADD159R,0.07120X0.05899*%
%ADD153R,0.09443X0.06490*%
X0Y0D02*
D02*
D10*
X1042Y4902D02*
X396361D01*
Y319855*
X1042*
Y4902*
D02*
D74*
X78731Y156363D03*
X85731D03*
X157107Y194178D03*
X157731Y175582D03*
X164107Y194178D03*
X164731Y175582D03*
X174954Y230496D03*
X181954D03*
X191837Y294160D03*
X198837D03*
X207653Y229123D03*
X209899Y158484D03*
Y166596D03*
X214653Y229123D03*
X216888Y118048D03*
X216899Y158484D03*
Y166596D03*
X223888Y118048D03*
X233487Y173336D03*
X239478Y242851D03*
X240487Y173336D03*
X246467D03*
X246478Y242851D03*
X253467Y173336D03*
X292644Y212524D03*
X299644D03*
X305124Y183570D03*
X305748Y206159D03*
X305873Y212524D03*
X311863Y147377D03*
X312124Y183570D03*
X312748Y206159D03*
X312873Y212524D03*
X318852Y183694D03*
X318863Y147377D03*
X325852Y183694D03*
X326465Y201167D03*
X333465D03*
X340069Y147377D03*
X347069D03*
X353922Y254333D03*
X360922D03*
D02*
D130*
X147741Y42166D03*
Y62637D03*
X152741Y42166D03*
Y62637D03*
X157741Y42166D03*
Y62637D03*
X162741Y42166D03*
Y62637D03*
X254947Y57539D03*
Y78011D03*
X259947Y57539D03*
Y78011D03*
X264947Y57539D03*
Y78011D03*
X269947Y57539D03*
Y78011D03*
D02*
D131*
X59143Y138385D03*
Y145385D03*
X128658Y260568D03*
Y267568D03*
X141637Y42162D03*
Y49162D03*
X151622Y75110D03*
Y82110D03*
X158111Y75110D03*
Y82110D03*
X172838Y240100D03*
Y247100D03*
X175584Y112926D03*
Y119926D03*
X196052Y121038D03*
Y128038D03*
X226753Y126280D03*
Y133280D03*
X235115Y208026D03*
Y215026D03*
X242603Y274046D03*
Y281046D03*
X242728Y208026D03*
Y215026D03*
X247845Y150117D03*
Y157117D03*
X249343Y64008D03*
Y71008D03*
X276924Y57768D03*
Y64768D03*
X277049Y144501D03*
Y151501D03*
X283539Y144501D03*
Y151501D03*
X290028Y144626D03*
Y151626D03*
X298515Y191427D03*
Y198427D03*
X306003Y69494D03*
Y76494D03*
X313741Y69369D03*
Y76369D03*
X322103Y69988D03*
Y76988D03*
X329603Y69988D03*
Y76988D03*
X341572Y69619D03*
Y76619D03*
X349060Y69619D03*
Y76619D03*
D02*
D132*
X121045Y260443D03*
Y267923D03*
X181608Y278429D03*
Y285909D03*
X188813Y230759D03*
Y238239D03*
X213558Y274454D03*
Y281935D03*
X219515Y251956D03*
Y259437D03*
X248968Y208150D03*
Y215631D03*
X250341Y251975D03*
Y259456D03*
X250965Y274171D03*
Y281652D03*
X355176Y266577D03*
Y274057D03*
D02*
D133*
X100091Y90467D03*
X107572D03*
X156983Y182946D03*
X164463D03*
X337448Y183694D03*
X344928D03*
X353922Y246096D03*
X361402D03*
D02*
D134*
X368904Y47628D03*
Y64164D03*
D02*
D135*
X129650Y68558D03*
X133650Y59858D03*
X137650Y68558D03*
X222379Y283219D03*
X226379Y274519D03*
X230379Y283219D03*
X231739Y158291D03*
X235739Y149591D03*
X239739Y158291D03*
X305248Y58948D03*
X309248Y50248D03*
X311488Y139820D03*
X313248Y58948D03*
X315488Y131120D03*
X319488Y139820D03*
X321597Y58823D03*
X325597Y50123D03*
X329597Y58823D03*
X339694Y139696D03*
X341067Y58574D03*
X343694Y130996D03*
X345067Y49874D03*
X347694Y139696D03*
X349067Y58574D03*
D02*
D136*
X17209Y302757D03*
X382258Y309371D03*
X386876Y16583D03*
D02*
D137*
X174370Y22702D03*
Y58135D03*
D02*
D142*
X174383Y183320D03*
Y185289D03*
Y187257D03*
Y189226D03*
Y191194D03*
Y193163D03*
Y195131D03*
Y197100D03*
Y199068D03*
Y201037D03*
Y203005D03*
Y204974D03*
Y206942D03*
Y208911D03*
Y210879D03*
Y212848D03*
X219265Y183320D03*
Y185289D03*
Y187257D03*
Y189226D03*
Y191194D03*
Y193163D03*
Y195131D03*
Y197100D03*
Y199068D03*
Y201037D03*
Y203005D03*
Y204974D03*
Y206942D03*
Y208911D03*
Y210879D03*
Y212848D03*
D02*
D143*
X182060Y175643D03*
Y220525D03*
X184029Y175643D03*
Y220525D03*
X185997Y175643D03*
Y220525D03*
X187966Y175643D03*
Y220525D03*
X189934Y175643D03*
Y220525D03*
X191903Y175643D03*
Y220525D03*
X193871Y175643D03*
Y220525D03*
X195840Y175643D03*
Y220525D03*
X197808Y175643D03*
Y220525D03*
X199777Y175643D03*
Y220525D03*
X201745Y175643D03*
Y220525D03*
X203714Y175643D03*
Y220525D03*
X205682Y175643D03*
Y220525D03*
X207651Y175643D03*
Y220525D03*
X209619Y175643D03*
Y220525D03*
X211588Y175643D03*
Y220525D03*
D02*
D144*
X66036Y124720D03*
Y146570D03*
X68595Y124720D03*
Y146570D03*
X71154Y124720D03*
Y146570D03*
X73713Y124720D03*
Y146570D03*
X76272Y124720D03*
Y146570D03*
X78831Y124720D03*
Y146570D03*
X81390Y124720D03*
Y146570D03*
X83949Y124720D03*
Y146570D03*
D02*
D145*
X233623Y184568D03*
X251339D03*
D02*
D146*
X134656Y256756D03*
Y258724D03*
Y260693D03*
X144302Y256756D03*
Y258724D03*
Y260693D03*
D02*
D147*
X135542Y253902D03*
Y263547D03*
X137510Y253902D03*
Y263547D03*
X139479Y253902D03*
Y263547D03*
X141447Y253902D03*
Y263547D03*
X143416Y253902D03*
Y263547D03*
D02*
D148*
X191808Y278670D03*
Y286150D03*
X202092Y278670D03*
Y282410D03*
Y286150D03*
X230223Y251716D03*
Y255456D03*
Y259196D03*
X240506Y251716D03*
Y259196D03*
X307351Y191311D03*
Y198792D03*
X317635Y191311D03*
Y195052D03*
Y198792D03*
D02*
D149*
X342321Y254458D03*
Y264458D03*
Y274458D03*
D02*
D150*
X302009Y264583D03*
D02*
D151*
X135652Y20283D03*
X138211D03*
X140770D03*
X143329D03*
X145888D03*
D02*
D152*
X129353Y16470D03*
X152157D03*
D02*
D153*
X128959Y8669D03*
X152581D03*
D02*
D154*
X137502D03*
X144038D03*
D02*
D155*
X182460Y12714D03*
X186791D03*
X191122D03*
X195452D03*
X199783D03*
X204114D03*
X208444D03*
X212775D03*
D02*
D156*
X229488Y14880D03*
Y59434D03*
D02*
D157*
X173228Y14277D03*
D02*
D158*
X182048Y62584D03*
X212678Y62564D03*
D02*
D159*
X315363Y110302D03*
Y121302D03*
X343819Y109927D03*
Y120927D03*
D02*
D160*
X231339Y106941D03*
X240039Y102941D03*
Y110941D03*
X249311Y97081D03*
X258011Y93081D03*
Y101081D03*
X0Y0D02*
M02*
