%FSLAX23Y23*%
%MOIN*%
G04 EasyPC Gerber Version 17.0 Build 3379 *
%ADD10C,0.00500*%
%ADD82C,0.00800*%
%ADD11C,0.01000*%
X0Y0D02*
D02*
D10*
X3Y3D02*
X784D01*
Y1072*
X3*
Y3*
X61Y1035D02*
X67Y1031D01*
X71Y1025*
Y1013*
X67Y1006*
X61Y1003*
X55Y1006*
X52Y1013*
Y1025*
X49Y1031*
X42Y1035*
X36Y1031*
X33Y1025*
Y1013*
X36Y1006*
X42Y1003*
X71Y985D02*
X33D01*
X52Y969*
X33Y953*
X71*
Y935D02*
X33Y919D01*
X71Y903*
X55Y928D02*
Y910D01*
X71Y885D02*
X33D01*
Y863*
X36Y856*
X42Y853*
X49Y856*
X52Y863*
Y885*
Y863D02*
X71Y853D01*
Y819D02*
X33D01*
Y835D02*
Y803D01*
X71Y785D02*
X33Y769D01*
X71Y753*
X55Y778D02*
Y760D01*
X61Y735D02*
X67Y731D01*
X71Y725*
Y713*
X67Y706*
X61Y703*
X55Y706*
X52Y713*
Y725*
X49Y731*
X42Y735*
X36Y731*
X33Y725*
Y713*
X36Y706*
X42Y703*
X61Y685D02*
X67Y681D01*
X71Y675*
Y663*
X67Y656*
X61Y653*
X55Y656*
X52Y663*
Y675*
X49Y681*
X42Y685*
X36Y681*
X33Y675*
Y663*
X36Y656*
X42Y653*
X71Y585D02*
X33D01*
Y563*
X36Y556*
X42Y553*
X49Y556*
X52Y563*
Y585*
X58Y535D02*
X46D01*
X39Y531*
X36Y528*
X33Y522*
Y516*
X36Y510*
X39Y506*
X46Y503*
X58*
X64Y506*
X67Y510*
X71Y516*
Y522*
X67Y528*
X64Y531*
X58Y535*
X71Y469D02*
X33D01*
Y485D02*
Y453D01*
X61Y385D02*
X67Y381D01*
X71Y375*
Y363*
X67Y356*
X61Y353*
X55Y356*
X52Y363*
Y375*
X49Y381*
X42Y385*
X36Y381*
X33Y375*
Y363*
X36Y356*
X42Y353*
X33Y335D02*
X71Y331D01*
X52Y319*
X71Y306*
X33Y303*
X71Y275D02*
Y263D01*
Y269D02*
X33D01*
Y275D02*
Y263D01*
X71Y219D02*
X33D01*
Y235D02*
Y203D01*
X64Y153D02*
X67Y156D01*
X71Y163*
Y172*
X67Y178*
X64Y181*
X58Y185*
X46*
X39Y181*
X36Y178*
X33Y172*
Y163*
X36Y156*
X39Y153*
X71Y135D02*
X33D01*
X52D02*
Y103D01*
X71D02*
X33D01*
X131Y1035D02*
X93D01*
Y1013*
X96Y1006*
X102Y1003*
X109Y1006*
X112Y1013*
Y1035*
Y1013D02*
X131Y1003D01*
Y985D02*
X93D01*
Y953*
X112Y960D02*
Y985D01*
X131D02*
Y953D01*
X93Y935D02*
X131Y919D01*
X93Y903*
X131Y878D02*
Y866D01*
Y872D02*
X93D01*
X99Y878*
X294Y646D02*
X297Y643D01*
X303Y640*
X313*
X319Y643*
X322Y646*
X325Y652*
Y665*
X322Y671*
X319Y674*
X313Y677*
X303*
X297Y674*
X294Y671*
X269Y640D02*
X256D01*
X263D02*
Y677D01*
X269Y671*
X528Y642D02*
Y680D01*
X506*
X499Y677*
X496Y670*
X499Y664*
X506Y661*
X528*
X506D02*
X496Y642D01*
X453D02*
X478D01*
X456Y664*
X453Y670*
X456Y677*
X462Y680*
X471*
X478Y677*
X639Y987D02*
Y1024D01*
X617*
X611Y1021*
X608Y1015*
X611Y1008*
X617Y1005*
X639*
X589Y1024D02*
Y987D01*
X558*
X533D02*
X520D01*
X526D02*
Y1024D01*
X533Y1018*
X717Y1056D02*
X754Y1053D01*
X736Y1040*
X754Y1028*
X717Y1025*
Y1006D02*
X754Y1003D01*
X736Y990*
X754Y978*
X717Y975*
Y956D02*
X754Y953D01*
X736Y940*
X754Y928*
X717Y925*
X754Y903D02*
X751Y900D01*
X748Y903*
X751Y906*
X754Y903*
X745Y856D02*
X751Y853D01*
X754Y846*
Y834*
X751Y828*
X745Y825*
X739Y828*
X736Y834*
Y846*
X733Y853*
X726Y856*
X720Y853*
X717Y846*
Y834*
X720Y828*
X726Y825*
X754Y806D02*
X717D01*
X736Y790*
X717Y775*
X754*
Y756D02*
X717Y740D01*
X754Y725*
X739Y750D02*
Y731D01*
X754Y706D02*
X717D01*
Y684*
X720Y678*
X726Y675*
X733Y678*
X736Y684*
Y706*
Y684D02*
X754Y675D01*
Y640D02*
X717D01*
Y656D02*
Y625D01*
X754Y606D02*
X717Y590D01*
X754Y575*
X739Y600D02*
Y581D01*
X717Y556D02*
X754Y540D01*
X717Y525*
X754Y496D02*
Y484D01*
Y490D02*
X717D01*
Y496D02*
Y484D01*
X742Y456D02*
X729D01*
X723Y453*
X720Y450*
X717Y443*
Y437*
X720Y431*
X723Y428*
X729Y425*
X742*
X748Y428*
X751Y431*
X754Y437*
Y443*
X751Y450*
X748Y453*
X742Y456*
X754Y406D02*
X717D01*
X754Y375*
X717*
X754Y346D02*
Y334D01*
Y340D02*
X717D01*
Y346D02*
Y334D01*
X748Y275D02*
X751Y278D01*
X754Y284*
Y293*
X751Y300*
X748Y303*
X742Y306*
X729*
X723Y303*
X720Y300*
X717Y293*
Y284*
X720Y278*
X723Y275*
X745Y256D02*
X751Y253D01*
X754Y246*
Y234*
X751Y228*
X745Y225*
X739Y228*
X736Y234*
Y246*
X733Y253*
X726Y256*
X720Y253*
X717Y246*
Y234*
X720Y228*
X726Y225*
X754Y203D02*
X751Y200D01*
X748Y203*
X751Y206*
X754Y203*
X748Y125D02*
X751Y128D01*
X754Y134*
Y143*
X751Y150*
X748Y153*
X742Y156*
X729*
X723Y153*
X720Y150*
X717Y143*
Y134*
X720Y128*
X723Y125*
X742Y106D02*
X729D01*
X723Y103*
X720Y100*
X717Y93*
Y87*
X720Y81*
X723Y78*
X729Y75*
X742*
X748Y78*
X751Y81*
X754Y87*
Y93*
X751Y100*
X748Y103*
X742Y106*
X754Y56D02*
X717D01*
X736Y40*
X717Y25*
X754*
D02*
D11*
X498Y800D02*
X298D01*
Y1050*
X498*
Y800*
Y825D02*
X298D01*
D02*
D82*
X258Y469D02*
Y609D01*
X328*
Y469*
X258*
X527Y609D02*
X457D01*
Y473*
X527*
Y609*
X0Y0D02*
M02*
